EESchema Schematic File Version 2
LIBS:power
LIBS:device
LIBS:transistors
LIBS:conn
LIBS:linear
LIBS:regul
LIBS:74xx
LIBS:cmos4000
LIBS:adc-dac
LIBS:memory
LIBS:xilinx
LIBS:microcontrollers
LIBS:dsp
LIBS:microchip
LIBS:analog_switches
LIBS:motorola
LIBS:texas
LIBS:intel
LIBS:audio
LIBS:interface
LIBS:digital-audio
LIBS:philips
LIBS:display
LIBS:cypress
LIBS:siliconi
LIBS:opto
LIBS:atmel
LIBS:contrib
LIBS:valves
LIBS:mic5205-4
LIBS:LNA-cache
EELAYER 25 0
EELAYER END
$Descr A4 11693 8268
encoding utf-8
Sheet 1 1
Title ""
Date ""
Rev ""
Comp ""
Comment1 ""
Comment2 ""
Comment3 ""
Comment4 ""
$EndDescr
$Comp
L MIC5205-4.0YM5 U2
U 1 1 59C177D5
P 4200 3800
F 0 "U2" H 4200 3800 60  0000 C CNN
F 1 "MIC5205-4.0YM5" H 4200 3550 60  0000 C CNN
F 2 "TO_SOT_Packages_SMD:SOT-23-5_HandSoldering" H 4200 3800 60  0001 C CNN
F 3 "" H 4200 3800 60  0001 C CNN
	1    4200 3800
	1    0    0    -1  
$EndComp
$Comp
L GND #PWR01
U 1 1 59C1791E
P 5500 3750
F 0 "#PWR01" H 5500 3500 50  0001 C CNN
F 1 "GND" H 5500 3600 50  0000 C CNN
F 2 "" H 5500 3750 50  0001 C CNN
F 3 "" H 5500 3750 50  0001 C CNN
	1    5500 3750
	1    0    0    -1  
$EndComp
$Comp
L C C3
U 1 1 59C17946
P 5000 4500
F 0 "C3" H 5025 4600 50  0000 L CNN
F 1 "470p" H 5025 4400 50  0000 L CNN
F 2 "Capacitors_SMD:C_1206_HandSoldering" H 5038 4350 50  0001 C CNN
F 3 "" H 5000 4500 50  0001 C CNN
	1    5000 4500
	1    0    0    -1  
$EndComp
$Comp
L C C6
U 1 1 59C179B1
P 2400 3400
F 0 "C6" H 2425 3500 50  0000 L CNN
F 1 "100p" H 2425 3300 50  0000 L CNN
F 2 "Capacitors_SMD:C_1206_HandSoldering" H 2438 3250 50  0001 C CNN
F 3 "" H 2400 3400 50  0001 C CNN
	1    2400 3400
	1    0    0    -1  
$EndComp
$Comp
L CP C5
U 1 1 59C179F3
P 2750 3400
F 0 "C5" H 2775 3500 50  0000 L CNN
F 1 "1u" H 2775 3300 50  0000 L CNN
F 2 "Capacitors_Tantalum_SMD:CP_Tantalum_Case-A_EIA-3216-18_Hand" H 2788 3250 50  0001 C CNN
F 3 "" H 2750 3400 50  0001 C CNN
	1    2750 3400
	1    0    0    -1  
$EndComp
Wire Wire Line
	4850 3250 5950 3250
$Comp
L CP C1
U 1 1 59C17EDD
P 5500 3400
F 0 "C1" H 5525 3500 50  0000 L CNN
F 1 "4u7" H 5525 3300 50  0000 L CNN
F 2 "Capacitors_Tantalum_SMD:CP_Tantalum_Case-A_EIA-3216-18_Hand" H 5538 3250 50  0001 C CNN
F 3 "" H 5500 3400 50  0001 C CNN
	1    5500 3400
	1    0    0    -1  
$EndComp
Wire Wire Line
	5500 3550 5500 3750
Wire Wire Line
	3550 4350 3150 4350
Wire Wire Line
	3150 4350 3150 3250
Wire Wire Line
	2050 3250 3550 3250
$Comp
L GND #PWR02
U 1 1 59C18008
P 3400 3800
F 0 "#PWR02" H 3400 3550 50  0001 C CNN
F 1 "GND" H 3400 3650 50  0000 C CNN
F 2 "" H 3400 3800 50  0001 C CNN
F 3 "" H 3400 3800 50  0001 C CNN
	1    3400 3800
	1    0    0    -1  
$EndComp
Wire Wire Line
	3400 3800 3550 3800
$Comp
L GND #PWR03
U 1 1 59C18114
P 5000 4750
F 0 "#PWR03" H 5000 4500 50  0001 C CNN
F 1 "GND" H 5000 4600 50  0000 C CNN
F 2 "" H 5000 4750 50  0001 C CNN
F 3 "" H 5000 4750 50  0001 C CNN
	1    5000 4750
	1    0    0    -1  
$EndComp
Wire Wire Line
	5000 4650 5000 4750
Wire Wire Line
	4850 4350 5000 4350
Connection ~ 3150 3250
Connection ~ 2750 3250
$Comp
L GND #PWR04
U 1 1 59C1846D
P 2600 3650
F 0 "#PWR04" H 2600 3400 50  0001 C CNN
F 1 "GND" H 2600 3500 50  0000 C CNN
F 2 "" H 2600 3650 50  0001 C CNN
F 3 "" H 2600 3650 50  0001 C CNN
	1    2600 3650
	1    0    0    -1  
$EndComp
Wire Wire Line
	2400 3550 2750 3550
Wire Wire Line
	2600 3550 2600 3650
Connection ~ 2600 3550
$Comp
L GND #PWR05
U 1 1 59C186BB
P 2450 5050
F 0 "#PWR05" H 2450 4800 50  0001 C CNN
F 1 "GND" H 2450 4900 50  0000 C CNN
F 2 "" H 2450 5050 50  0001 C CNN
F 3 "" H 2450 5050 50  0001 C CNN
	1    2450 5050
	-1   0    0    1   
$EndComp
Wire Wire Line
	2150 5400 2150 5050
Wire Wire Line
	2150 5050 2750 5050
Wire Wire Line
	2750 5050 2750 5400
Connection ~ 2450 5050
$Comp
L R r1
U 1 1 59C187D9
P 2450 5900
F 0 "r1" V 2530 5900 50  0000 C CNN
F 1 "200k" V 2450 5900 50  0000 C CNN
F 2 "Resistors_SMD:R_0603_HandSoldering" V 2380 5900 50  0001 C CNN
F 3 "" H 2450 5900 50  0001 C CNN
	1    2450 5900
	1    0    0    -1  
$EndComp
$Comp
L C C2
U 1 1 59C18834
P 3100 5650
F 0 "C2" H 3125 5750 50  0000 L CNN
F 1 "1n" H 3125 5550 50  0000 L CNN
F 2 "Capacitors_SMD:C_1206_HandSoldering" H 3138 5500 50  0001 C CNN
F 3 "" H 3100 5650 50  0001 C CNN
	1    3100 5650
	0    1    1    0   
$EndComp
Wire Wire Line
	2450 5600 2450 5750
$Comp
L GND #PWR06
U 1 1 59C189A6
P 2450 6300
F 0 "#PWR06" H 2450 6050 50  0001 C CNN
F 1 "GND" H 2450 6150 50  0000 C CNN
F 2 "" H 2450 6300 50  0001 C CNN
F 3 "" H 2450 6300 50  0001 C CNN
	1    2450 6300
	1    0    0    -1  
$EndComp
Wire Wire Line
	2450 6050 2450 6300
Text GLabel 2050 3250 0    60   Input ~ 0
VIN
Connection ~ 2400 3250
Text GLabel 5950 3250 2    60   Input ~ 0
VOUT
Connection ~ 5500 3250
Text GLabel 2000 5650 0    60   Input ~ 0
RF
$Comp
L PSA4-5043+ U1
U 1 1 59C195DD
P 4100 5650
F 0 "U1" H 4100 5500 60  0000 C CNN
F 1 "PSA4-5043+" H 4400 6000 60  0000 C CNN
F 2 "TO_SOT_Packages_SMD:SOT-343_SC-70-4_Handsoldering" H 4100 5650 60  0001 C CNN
F 3 "" H 4100 5650 60  0001 C CNN
	1    4100 5650
	-1   0    0    -1  
$EndComp
Wire Wire Line
	2000 5650 2950 5650
Connection ~ 2450 5650
$Comp
L GND #PWR07
U 1 1 59C19A27
P 4000 6200
F 0 "#PWR07" H 4000 5950 50  0001 C CNN
F 1 "GND" H 4000 6050 50  0000 C CNN
F 2 "" H 4000 6200 50  0001 C CNN
F 3 "" H 4000 6200 50  0001 C CNN
	1    4000 6200
	1    0    0    -1  
$EndComp
Wire Wire Line
	4000 6050 4000 6200
$Comp
L C C4
U 1 1 59C1A0CF
P 5100 5650
F 0 "C4" H 5125 5750 50  0000 L CNN
F 1 "1n" H 5125 5550 50  0000 L CNN
F 2 "Capacitors_SMD:C_1206_HandSoldering" H 5138 5500 50  0001 C CNN
F 3 "" H 5100 5650 50  0001 C CNN
	1    5100 5650
	0    1    1    0   
$EndComp
$Comp
L L L1
U 1 1 59C1A10E
P 4750 5350
F 0 "L1" V 4700 5350 50  0000 C CNN
F 1 "10u" V 4825 5350 50  0000 C CNN
F 2 "Inductors_SMD:L_0805_HandSoldering" H 4750 5350 50  0001 C CNN
F 3 "" H 4750 5350 50  0001 C CNN
	1    4750 5350
	1    0    0    -1  
$EndComp
$Comp
L L L2
U 1 1 59C1A173
P 5350 5300
F 0 "L2" V 5300 5300 50  0000 C CNN
F 1 "10u" V 5425 5300 50  0000 C CNN
F 2 "Inductors_SMD:L_0805_HandSoldering" H 5350 5300 50  0001 C CNN
F 3 "" H 5350 5300 50  0001 C CNN
	1    5350 5300
	1    0    0    -1  
$EndComp
Wire Wire Line
	4500 5650 4950 5650
Wire Wire Line
	4750 5500 4750 5650
Connection ~ 4750 5650
Text GLabel 4750 5100 1    60   Input ~ 0
VOUT
Wire Wire Line
	4750 5100 4750 5200
Wire Wire Line
	5350 5450 5350 5950
Wire Wire Line
	5250 5650 5600 5650
Text GLabel 5350 5050 1    60   Input ~ 0
VIN
Wire Wire Line
	5350 5050 5350 5150
$Comp
L CONN_COAXIAL J1
U 1 1 59C1B6A3
P 5750 5650
F 0 "J1" H 5760 5770 50  0000 C CNN
F 1 "SO-239" V 5865 5650 50  0000 C CNN
F 2 "so239:SO-239" H 5750 5650 50  0001 C CNN
F 3 "" H 5750 5650 50  0001 C CNN
	1    5750 5650
	1    0    0    -1  
$EndComp
Connection ~ 5350 5650
$Comp
L GND #PWR08
U 1 1 59C1BA29
P 5500 6150
F 0 "#PWR08" H 5500 5900 50  0001 C CNN
F 1 "GND" H 5500 6000 50  0000 C CNN
F 2 "" H 5500 6150 50  0001 C CNN
F 3 "" H 5500 6150 50  0001 C CNN
	1    5500 6150
	1    0    0    -1  
$EndComp
Wire Wire Line
	5750 5850 5750 6150
Wire Wire Line
	3250 5650 3450 5650
$Comp
L CONN_01X01 J2
U 1 1 59C1E3C2
P 2050 5950
F 0 "J2" H 2050 6050 50  0000 C CNN
F 1 "CONN_01X01" V 2150 5950 50  0000 C CNN
F 2 "Wire_Pads:SolderWirePad_single_SMD_5x10mm" H 2050 5950 50  0001 C CNN
F 3 "" H 2050 5950 50  0001 C CNN
	1    2050 5950
	0    1    1    0   
$EndComp
Wire Wire Line
	2050 5750 2050 5650
Connection ~ 2050 5650
$Comp
L D_Schottky_x2_Serial_KAC D1
U 1 1 59C1E576
P 2450 5400
F 0 "D1" H 2500 5300 50  0000 C CNN
F 1 "BAS70-04" H 2450 5500 50  0000 C CNN
F 2 "TO_SOT_Packages_SMD:SOT-23_Handsoldering" H 2450 5400 50  0001 C CNN
F 3 "" H 2450 5400 50  0001 C CNN
	1    2450 5400
	1    0    0    -1  
$EndComp
Wire Wire Line
	4500 5450 4500 6050
Wire Wire Line
	4500 6050 4000 6050
$Comp
L CONN_COAXIAL J3
U 1 1 5A560D24
P 5500 5950
F 0 "J3" H 5510 6070 50  0000 C CNN
F 1 "SMA" V 5615 5950 50  0000 C CNN
F 2 "" H 5500 5950 50  0001 C CNN
F 3 "" H 5500 5950 50  0001 C CNN
	1    5500 5950
	1    0    0    -1  
$EndComp
Wire Wire Line
	5750 6150 5500 6150
$EndSCHEMATC
